^C:\USERS\ADMIN\DESKTOP\Y2SEM1 STUFF\SP3 STUFF\SP3\NYP_FRAMEWORK SP3\BASE\RELEASE\APPLICATION.OBJ|C:\USERS\ADMIN\DESKTOP\Y2SEM1 STUFF\SP3 STUFF\SP3\NYP_FRAMEWORK SP3\BASE\RELEASE\BLANK.OBJ|C:\USERS\ADMIN\DESKTOP\Y2SEM1 STUFF\SP3 STUFF\SP3\NYP_FRAMEWORK SP3\BASE\RELEASE\CAMERAEFFECTS.OBJ|C:\USERS\ADMIN\DESKTOP\Y2SEM1 STUFF\SP3 STUFF\SP3\NYP_FRAMEWORK SP3\BASE\RELEASE\CINVENTORY.OBJ|C:\USERS\ADMIN\DESKTOP\Y2SEM1 STUFF\SP3 STUFF\SP3\NYP_FRAMEWORK SP3\BASE\RELEASE\CONTROLLER.OBJ|C:\USERS\ADMIN\DESKTOP\Y2SEM1 STUFF\SP3 STUFF\SP3\NYP_FRAMEWORK SP3\BASE\RELEASE\ENEMY3D.OBJ|C:\USERS\ADMIN\DESKTOP\Y2SEM1 STUFF\SP3 STUFF\SP3\NYP_FRAMEWORK SP3\BASE\RELEASE\ENTITYENTITY.OBJ|C:\USERS\ADMIN\DESKTOP\Y2SEM1 STUFF\SP3 STUFF\SP3\NYP_FRAMEWORK SP3\BASE\RELEASE\ENTITYMANAGER.OBJ|C:\USERS\ADMIN\DESKTOP\Y2SEM1 STUFF\SP3 STUFF\SP3\NYP_FRAMEWORK SP3\BASE\RELEASE\EVENTBOX.OBJ|C:\USERS\ADMIN\DESKTOP\Y2SEM1 STUFF\SP3 STUFF\SP3\NYP_FRAMEWORK SP3\BASE\RELEASE\FPSCAMERA.OBJ|C:\USERS\ADMIN\DESKTOP\Y2SEM1 STUFF\SP3 STUFF\SP3\NYP_FRAMEWORK SP3\BASE\RELEASE\FURNITURE.OBJ|C:\USERS\ADMIN\DESKTOP\Y2SEM1 STUFF\SP3 STUFF\SP3\NYP_FRAMEWORK SP3\BASE\RELEASE\GAMEOVER.OBJ|C:\USERS\ADMIN\DESKTOP\Y2SEM1 STUFF\SP3 STUFF\SP3\NYP_FRAMEWORK SP3\BASE\RELEASE\GENERICENTITY.OBJ|C:\USERS\ADMIN\DESKTOP\Y2SEM1 STUFF\SP3 STUFF\SP3\NYP_FRAMEWORK SP3\BASE\RELEASE\GRENADE.OBJ|C:\USERS\ADMIN\DESKTOP\Y2SEM1 STUFF\SP3 STUFF\SP3\NYP_FRAMEWORK SP3\BASE\RELEASE\GRID.OBJ|C:\USERS\ADMIN\DESKTOP\Y2SEM1 STUFF\SP3 STUFF\SP3\NYP_FRAMEWORK SP3\BASE\RELEASE\GROUNDENTITY.OBJ|C:\USERS\ADMIN\DESKTOP\Y2SEM1 STUFF\SP3 STUFF\SP3\NYP_FRAMEWORK SP3\BASE\RELEASE\HIGHSCORE.OBJ|C:\USERS\ADMIN\DESKTOP\Y2SEM1 STUFF\SP3 STUFF\SP3\NYP_FRAMEWORK SP3\BASE\RELEASE\KEYBOARD.OBJ|C:\USERS\ADMIN\DESKTOP\Y2SEM1 STUFF\SP3 STUFF\SP3\NYP_FRAMEWORK SP3\BASE\RELEASE\LEVELOFDETAIL.OBJ|C:\USERS\ADMIN\DESKTOP\Y2SEM1 STUFF\SP3 STUFF\SP3\NYP_FRAMEWORK SP3\BASE\RELEASE\LIGHT.OBJ|C:\USERS\ADMIN\DESKTOP\Y2SEM1 STUFF\SP3 STUFF\SP3\NYP_FRAMEWORK SP3\BASE\RELEASE\LUAINTERFACE.OBJ|C:\USERS\ADMIN\DESKTOP\Y2SEM1 STUFF\SP3 STUFF\SP3\NYP_FRAMEWORK SP3\BASE\RELEASE\MAIN.OBJ|C:\USERS\ADMIN\DESKTOP\Y2SEM1 STUFF\SP3 STUFF\SP3\NYP_FRAMEWORK SP3\BASE\RELEASE\MAINMENU.OBJ|C:\USERS\ADMIN\DESKTOP\Y2SEM1 STUFF\SP3 STUFF\SP3\NYP_FRAMEWORK SP3\BASE\RELEASE\MINIGUN.OBJ|C:\USERS\ADMIN\DESKTOP\Y2SEM1 STUFF\SP3 STUFF\SP3\NYP_FRAMEWORK SP3\BASE\RELEASE\MINIMAP.OBJ|C:\USERS\ADMIN\DESKTOP\Y2SEM1 STUFF\SP3 STUFF\SP3\NYP_FRAMEWORK SP3\BASE\RELEASE\MOUSE.OBJ|C:\USERS\ADMIN\DESKTOP\Y2SEM1 STUFF\SP3 STUFF\SP3\NYP_FRAMEWORK SP3\BASE\RELEASE\NADE.OBJ|C:\USERS\ADMIN\DESKTOP\Y2SEM1 STUFF\SP3 STUFF\SP3\NYP_FRAMEWORK SP3\BASE\RELEASE\OBJMESH.OBJ|C:\USERS\ADMIN\DESKTOP\Y2SEM1 STUFF\SP3 STUFF\SP3\NYP_FRAMEWORK SP3\BASE\RELEASE\PARTICLE.OBJ|C:\USERS\ADMIN\DESKTOP\Y2SEM1 STUFF\SP3 STUFF\SP3\NYP_FRAMEWORK SP3\BASE\RELEASE\PAUSESTATE.OBJ|C:\USERS\ADMIN\DESKTOP\Y2SEM1 STUFF\SP3 STUFF\SP3\NYP_FRAMEWORK SP3\BASE\RELEASE\PISTOL.OBJ|C:\USERS\ADMIN\DESKTOP\Y2SEM1 STUFF\SP3 STUFF\SP3\NYP_FRAMEWORK SP3\BASE\RELEASE\PLAYERINFO.OBJ|C:\USERS\ADMIN\DESKTOP\Y2SEM1 STUFF\SP3 STUFF\SP3\NYP_FRAMEWORK SP3\BASE\RELEASE\PROJECTILE.OBJ|C:\USERS\ADMIN\DESKTOP\Y2SEM1 STUFF\SP3 STUFF\SP3\NYP_FRAMEWORK SP3\BASE\RELEASE\PS4.OBJ|C:\USERS\ADMIN\DESKTOP\Y2SEM1 STUFF\SP3 STUFF\SP3\NYP_FRAMEWORK SP3\BASE\RELEASE\RIFLE.OBJ|C:\USERS\ADMIN\DESKTOP\Y2SEM1 STUFF\SP3 STUFF\SP3\NYP_FRAMEWORK SP3\BASE\RELEASE\SCENEGRAPH.OBJ|C:\USERS\ADMIN\DESKTOP\Y2SEM1 STUFF\SP3 STUFF\SP3\NYP_FRAMEWORK SP3\BASE\RELEASE\SCENENODE.OBJ|C:\USERS\ADMIN\DESKTOP\Y2SEM1 STUFF\SP3 STUFF\SP3\NYP_FRAMEWORK SP3\BASE\RELEASE\SCENETEXT.OBJ|C:\USERS\ADMIN\DESKTOP\Y2SEM1 STUFF\SP3 STUFF\SP3\NYP_FRAMEWORK SP3\BASE\RELEASE\SHOTGUN.OBJ|C:\USERS\ADMIN\DESKTOP\Y2SEM1 STUFF\SP3 STUFF\SP3\NYP_FRAMEWORK SP3\BASE\RELEASE\SKYBOXENTITY.OBJ|C:\USERS\ADMIN\DESKTOP\Y2SEM1 STUFF\SP3 STUFF\SP3\NYP_FRAMEWORK SP3\BASE\RELEASE\SOUNDENGINE.OBJ|C:\USERS\ADMIN\DESKTOP\Y2SEM1 STUFF\SP3 STUFF\SP3\NYP_FRAMEWORK SP3\BASE\RELEASE\SPATIALPARTITION.OBJ|C:\USERS\ADMIN\DESKTOP\Y2SEM1 STUFF\SP3 STUFF\SP3\NYP_FRAMEWORK SP3\BASE\RELEASE\SPRITEENTITY.OBJ|C:\USERS\ADMIN\DESKTOP\Y2SEM1 STUFF\SP3 STUFF\SP3\NYP_FRAMEWORK SP3\BASE\RELEASE\TEXTENTITY.OBJ|C:\USERS\ADMIN\DESKTOP\Y2SEM1 STUFF\SP3 STUFF\SP3\NYP_FRAMEWORK SP3\BASE\RELEASE\TRANSFORM.OBJ|C:\USERS\ADMIN\DESKTOP\Y2SEM1 STUFF\SP3 STUFF\SP3\NYP_FRAMEWORK SP3\BASE\RELEASE\UPDATETRANSFORMATION.OBJ|C:\USERS\ADMIN\DESKTOP\Y2SEM1 STUFF\SP3 STUFF\SP3\NYP_FRAMEWORK SP3\BASE\RELEASE\WEAPONINFO.OBJ
C:\WINDOWS\GLOBALIZATION\SORTING\SORTDEFAULT.NLS
C:\USERS\ADMIN\DESKTOP\Y2SEM1 STUFF\SP3 STUFF\SP3\NYP_FRAMEWORK SP3\PACKAGES\DIRECTXTK_DESKTOP_2015.2018.8.18.2\LIB\WIN32\RELEASE\DIRECTXTK.LIB
C:\USERS\ADMIN\DESKTOP\Y2SEM1 STUFF\SP3 STUFF\SP3\NYP_FRAMEWORK SP3\PACKAGES\DIRECTXTK_DESKTOP_2015.2018.8.18.2\LIB\WIN32\RELEASE\DIRECTXTKAUDIOWIN8.LIB
C:\PROGRAM FILES (X86)\MICROSOFT VISUAL STUDIO 14.0\VC\LIB\LEGACY_STDIO_DEFINITIONS.LIB
C:\USERS\ADMIN\DESKTOP\Y2SEM1 STUFF\SP3 STUFF\SP3\NYP_FRAMEWORK SP3\RELEASE\COMMON.LIB
C:\PROGRAM FILES (X86)\WINDOWS KITS\8.1\LIB\WINV6.3\UM\X86\WINMM.LIB
C:\PROGRAM FILES (X86)\WINDOWS KITS\8.1\LIB\WINV6.3\UM\X86\OPENGL32.LIB
C:\PROGRAM FILES (X86)\WINDOWS KITS\8.1\LIB\WINV6.3\UM\X86\GLU32.LIB
C:\USERS\ADMIN\DESKTOP\Y2SEM1 STUFF\SP3 STUFF\SP3\NYP_FRAMEWORK SP3\GLEW\LIB\GLEW32.LIB
C:\USERS\ADMIN\DESKTOP\Y2SEM1 STUFF\SP3 STUFF\SP3\NYP_FRAMEWORK SP3\GLFW\LIB-MSVC100\GLFW3.LIB
C:\USERS\ADMIN\DESKTOP\Y2SEM1 STUFF\SP3 STUFF\SP3\NYP_FRAMEWORK SP3\IRRKLANG\LIB\WIN32-VISUALSTUDIO\IRRKLANG.LIB
C:\USERS\ADMIN\DESKTOP\Y2SEM1 STUFF\SP3 STUFF\SP3\NYP_FRAMEWORK SP3\LUA\LUA5.1.LIB
C:\PROGRAM FILES (X86)\WINDOWS KITS\8.1\LIB\WINV6.3\UM\X86\KERNEL32.LIB
C:\PROGRAM FILES (X86)\WINDOWS KITS\8.1\LIB\WINV6.3\UM\X86\USER32.LIB
C:\PROGRAM FILES (X86)\WINDOWS KITS\8.1\LIB\WINV6.3\UM\X86\GDI32.LIB
C:\PROGRAM FILES (X86)\WINDOWS KITS\8.1\LIB\WINV6.3\UM\X86\WINSPOOL.LIB
C:\PROGRAM FILES (X86)\WINDOWS KITS\8.1\LIB\WINV6.3\UM\X86\COMDLG32.LIB
C:\PROGRAM FILES (X86)\WINDOWS KITS\8.1\LIB\WINV6.3\UM\X86\ADVAPI32.LIB
C:\PROGRAM FILES (X86)\WINDOWS KITS\8.1\LIB\WINV6.3\UM\X86\SHELL32.LIB
C:\PROGRAM FILES (X86)\WINDOWS KITS\8.1\LIB\WINV6.3\UM\X86\OLE32.LIB
C:\PROGRAM FILES (X86)\WINDOWS KITS\8.1\LIB\WINV6.3\UM\X86\OLEAUT32.LIB
C:\PROGRAM FILES (X86)\WINDOWS KITS\8.1\LIB\WINV6.3\UM\X86\UUID.LIB
C:\PROGRAM FILES (X86)\WINDOWS KITS\8.1\LIB\WINV6.3\UM\X86\ODBC32.LIB
C:\PROGRAM FILES (X86)\WINDOWS KITS\8.1\LIB\WINV6.3\UM\X86\ODBCCP32.LIB
C:\USERS\ADMIN\DESKTOP\Y2SEM1 STUFF\SP3 STUFF\SP3\NYP_FRAMEWORK SP3\BASE\RELEASE\APPLICATION.OBJ
C:\USERS\ADMIN\DESKTOP\Y2SEM1 STUFF\SP3 STUFF\SP3\NYP_FRAMEWORK SP3\BASE\RELEASE\CAMERAEFFECTS.OBJ
C:\USERS\ADMIN\DESKTOP\Y2SEM1 STUFF\SP3 STUFF\SP3\NYP_FRAMEWORK SP3\BASE\RELEASE\CINVENTORY.OBJ
C:\USERS\ADMIN\DESKTOP\Y2SEM1 STUFF\SP3 STUFF\SP3\NYP_FRAMEWORK SP3\BASE\RELEASE\EVENTBOX.OBJ
C:\USERS\ADMIN\DESKTOP\Y2SEM1 STUFF\SP3 STUFF\SP3\NYP_FRAMEWORK SP3\BASE\RELEASE\FURNITURE.OBJ
C:\USERS\ADMIN\DESKTOP\Y2SEM1 STUFF\SP3 STUFF\SP3\NYP_FRAMEWORK SP3\BASE\RELEASE\ENEMY3D.OBJ
C:\USERS\ADMIN\DESKTOP\Y2SEM1 STUFF\SP3 STUFF\SP3\NYP_FRAMEWORK SP3\BASE\RELEASE\ENTITYENTITY.OBJ
C:\USERS\ADMIN\DESKTOP\Y2SEM1 STUFF\SP3 STUFF\SP3\NYP_FRAMEWORK SP3\BASE\RELEASE\ENTITYMANAGER.OBJ
C:\USERS\ADMIN\DESKTOP\Y2SEM1 STUFF\SP3 STUFF\SP3\NYP_FRAMEWORK SP3\BASE\RELEASE\FPSCAMERA.OBJ
C:\USERS\ADMIN\DESKTOP\Y2SEM1 STUFF\SP3 STUFF\SP3\NYP_FRAMEWORK SP3\BASE\RELEASE\GAMEOVER.OBJ
C:\USERS\ADMIN\DESKTOP\Y2SEM1 STUFF\SP3 STUFF\SP3\NYP_FRAMEWORK SP3\BASE\RELEASE\HIGHSCORE.OBJ
C:\USERS\ADMIN\DESKTOP\Y2SEM1 STUFF\SP3 STUFF\SP3\NYP_FRAMEWORK SP3\BASE\RELEASE\MAINMENU.OBJ
C:\USERS\ADMIN\DESKTOP\Y2SEM1 STUFF\SP3 STUFF\SP3\NYP_FRAMEWORK SP3\BASE\RELEASE\PAUSESTATE.OBJ
C:\USERS\ADMIN\DESKTOP\Y2SEM1 STUFF\SP3 STUFF\SP3\NYP_FRAMEWORK SP3\BASE\RELEASE\GENERICENTITY.OBJ
C:\USERS\ADMIN\DESKTOP\Y2SEM1 STUFF\SP3 STUFF\SP3\NYP_FRAMEWORK SP3\BASE\RELEASE\GROUNDENTITY.OBJ
C:\USERS\ADMIN\DESKTOP\Y2SEM1 STUFF\SP3 STUFF\SP3\NYP_FRAMEWORK SP3\BASE\RELEASE\CONTROLLER.OBJ
C:\USERS\ADMIN\DESKTOP\Y2SEM1 STUFF\SP3 STUFF\SP3\NYP_FRAMEWORK SP3\BASE\RELEASE\KEYBOARD.OBJ
C:\USERS\ADMIN\DESKTOP\Y2SEM1 STUFF\SP3 STUFF\SP3\NYP_FRAMEWORK SP3\BASE\RELEASE\MOUSE.OBJ
C:\USERS\ADMIN\DESKTOP\Y2SEM1 STUFF\SP3 STUFF\SP3\NYP_FRAMEWORK SP3\BASE\RELEASE\PS4.OBJ
C:\USERS\ADMIN\DESKTOP\Y2SEM1 STUFF\SP3 STUFF\SP3\NYP_FRAMEWORK SP3\BASE\RELEASE\LEVELOFDETAIL.OBJ
C:\USERS\ADMIN\DESKTOP\Y2SEM1 STUFF\SP3 STUFF\SP3\NYP_FRAMEWORK SP3\BASE\RELEASE\LIGHT.OBJ
C:\USERS\ADMIN\DESKTOP\Y2SEM1 STUFF\SP3 STUFF\SP3\NYP_FRAMEWORK SP3\BASE\RELEASE\LUAINTERFACE.OBJ
C:\USERS\ADMIN\DESKTOP\Y2SEM1 STUFF\SP3 STUFF\SP3\NYP_FRAMEWORK SP3\BASE\RELEASE\MAIN.OBJ
C:\USERS\ADMIN\DESKTOP\Y2SEM1 STUFF\SP3 STUFF\SP3\NYP_FRAMEWORK SP3\BASE\RELEASE\MINIMAP.OBJ
C:\USERS\ADMIN\DESKTOP\Y2SEM1 STUFF\SP3 STUFF\SP3\NYP_FRAMEWORK SP3\BASE\RELEASE\OBJMESH.OBJ
C:\USERS\ADMIN\DESKTOP\Y2SEM1 STUFF\SP3 STUFF\SP3\NYP_FRAMEWORK SP3\BASE\RELEASE\PARTICLE.OBJ
C:\USERS\ADMIN\DESKTOP\Y2SEM1 STUFF\SP3 STUFF\SP3\NYP_FRAMEWORK SP3\BASE\RELEASE\PLAYERINFO.OBJ
C:\USERS\ADMIN\DESKTOP\Y2SEM1 STUFF\SP3 STUFF\SP3\NYP_FRAMEWORK SP3\BASE\RELEASE\NADE.OBJ
C:\USERS\ADMIN\DESKTOP\Y2SEM1 STUFF\SP3 STUFF\SP3\NYP_FRAMEWORK SP3\BASE\RELEASE\PROJECTILE.OBJ
C:\USERS\ADMIN\DESKTOP\Y2SEM1 STUFF\SP3 STUFF\SP3\NYP_FRAMEWORK SP3\BASE\RELEASE\SCENEGRAPH.OBJ
C:\USERS\ADMIN\DESKTOP\Y2SEM1 STUFF\SP3 STUFF\SP3\NYP_FRAMEWORK SP3\BASE\RELEASE\SCENENODE.OBJ
C:\USERS\ADMIN\DESKTOP\Y2SEM1 STUFF\SP3 STUFF\SP3\NYP_FRAMEWORK SP3\BASE\RELEASE\TRANSFORM.OBJ
C:\USERS\ADMIN\DESKTOP\Y2SEM1 STUFF\SP3 STUFF\SP3\NYP_FRAMEWORK SP3\BASE\RELEASE\UPDATETRANSFORMATION.OBJ
C:\USERS\ADMIN\DESKTOP\Y2SEM1 STUFF\SP3 STUFF\SP3\NYP_FRAMEWORK SP3\BASE\RELEASE\SCENETEXT.OBJ
C:\USERS\ADMIN\DESKTOP\Y2SEM1 STUFF\SP3 STUFF\SP3\NYP_FRAMEWORK SP3\BASE\RELEASE\SKYBOXENTITY.OBJ
C:\USERS\ADMIN\DESKTOP\Y2SEM1 STUFF\SP3 STUFF\SP3\NYP_FRAMEWORK SP3\BASE\RELEASE\SOUNDENGINE.OBJ
C:\USERS\ADMIN\DESKTOP\Y2SEM1 STUFF\SP3 STUFF\SP3\NYP_FRAMEWORK SP3\BASE\RELEASE\GRID.OBJ
C:\USERS\ADMIN\DESKTOP\Y2SEM1 STUFF\SP3 STUFF\SP3\NYP_FRAMEWORK SP3\BASE\RELEASE\SPATIALPARTITION.OBJ
C:\USERS\ADMIN\DESKTOP\Y2SEM1 STUFF\SP3 STUFF\SP3\NYP_FRAMEWORK SP3\BASE\RELEASE\SPRITEENTITY.OBJ
C:\USERS\ADMIN\DESKTOP\Y2SEM1 STUFF\SP3 STUFF\SP3\NYP_FRAMEWORK SP3\BASE\RELEASE\TEXTENTITY.OBJ
C:\USERS\ADMIN\DESKTOP\Y2SEM1 STUFF\SP3 STUFF\SP3\NYP_FRAMEWORK SP3\BASE\RELEASE\BLANK.OBJ
C:\USERS\ADMIN\DESKTOP\Y2SEM1 STUFF\SP3 STUFF\SP3\NYP_FRAMEWORK SP3\BASE\RELEASE\GRENADE.OBJ
C:\USERS\ADMIN\DESKTOP\Y2SEM1 STUFF\SP3 STUFF\SP3\NYP_FRAMEWORK SP3\BASE\RELEASE\MINIGUN.OBJ
C:\USERS\ADMIN\DESKTOP\Y2SEM1 STUFF\SP3 STUFF\SP3\NYP_FRAMEWORK SP3\BASE\RELEASE\PISTOL.OBJ
C:\USERS\ADMIN\DESKTOP\Y2SEM1 STUFF\SP3 STUFF\SP3\NYP_FRAMEWORK SP3\BASE\RELEASE\RIFLE.OBJ
C:\USERS\ADMIN\DESKTOP\Y2SEM1 STUFF\SP3 STUFF\SP3\NYP_FRAMEWORK SP3\BASE\RELEASE\SHOTGUN.OBJ
C:\USERS\ADMIN\DESKTOP\Y2SEM1 STUFF\SP3 STUFF\SP3\NYP_FRAMEWORK SP3\BASE\RELEASE\WEAPONINFO.OBJ
C:\PROGRAM FILES (X86)\MICROSOFT VISUAL STUDIO 14.0\VC\BIN\C2.DLL
C:\PROGRAM FILES (X86)\MICROSOFT VISUAL STUDIO 14.0\VC\LIB\MSVCPRT.LIB
C:\PROGRAM FILES (X86)\WINDOWS KITS\8.1\LIB\WINV6.3\UM\X86\XINPUT.LIB
C:\PROGRAM FILES (X86)\MICROSOFT VISUAL STUDIO 14.0\VC\LIB\MSVCRT.LIB
C:\PROGRAM FILES (X86)\MICROSOFT VISUAL STUDIO 14.0\VC\LIB\OLDNAMES.LIB
C:\PROGRAM FILES (X86)\WINDOWS KITS\8.1\LIB\WINV6.3\UM\X86\XINPUT9_1_0.LIB
C:\PROGRAM FILES (X86)\MICROSOFT VISUAL STUDIO 14.0\VC\LIB\VCRUNTIME.LIB
C:\PROGRAM FILES (X86)\WINDOWS KITS\10\LIB\10.0.10240.0\UCRT\X86\UCRT.LIB
C:\PROGRAM FILES (X86)\MICROSOFT VISUAL STUDIO 14.0\VC\LIB\LEGACY_STDIO_WIDE_SPECIFIERS.LIB
C:\PROGRAM FILES (X86)\MICROSOFT VISUAL STUDIO 14.0\VC\BIN\1033\LINKUI.DLL
C:\PROGRAM FILES (X86)\WINDOWS KITS\8.1\BIN\X86\RC.EXE
C:\PROGRAM FILES (X86)\MICROSOFT VISUAL STUDIO 14.0\VC\BIN\CVTRES.EXE
C:\WINDOWS\SYSTEM32\TZRES.DLL
C:\PROGRAM FILES (X86)\MICROSOFT VISUAL STUDIO 14.0\VC\BIN\1033\CLUI.DLL
^C:\USERS\ADMIN\DOCUMENTS\VISUAL STUDIO 2017\PROJECTS\NYP_AGDT_FRAMEWORK TEMPLATE (IN USE) V1\BASE\RELEASE\APPLICATION.OBJ|C:\USERS\ADMIN\DOCUMENTS\VISUAL STUDIO 2017\PROJECTS\NYP_AGDT_FRAMEWORK TEMPLATE (IN USE) V1\BASE\RELEASE\BLANK.OBJ|C:\USERS\ADMIN\DOCUMENTS\VISUAL STUDIO 2017\PROJECTS\NYP_AGDT_FRAMEWORK TEMPLATE (IN USE) V1\BASE\RELEASE\CAMERAEFFECTS.OBJ|C:\USERS\ADMIN\DOCUMENTS\VISUAL STUDIO 2017\PROJECTS\NYP_AGDT_FRAMEWORK TEMPLATE (IN USE) V1\BASE\RELEASE\CINVENTORY.OBJ|C:\USERS\ADMIN\DOCUMENTS\VISUAL STUDIO 2017\PROJECTS\NYP_AGDT_FRAMEWORK TEMPLATE (IN USE) V1\BASE\RELEASE\CONTROLLER.OBJ|C:\USERS\ADMIN\DOCUMENTS\VISUAL STUDIO 2017\PROJECTS\NYP_AGDT_FRAMEWORK TEMPLATE (IN USE) V1\BASE\RELEASE\ENEMY3D.OBJ|C:\USERS\ADMIN\DOCUMENTS\VISUAL STUDIO 2017\PROJECTS\NYP_AGDT_FRAMEWORK TEMPLATE (IN USE) V1\BASE\RELEASE\ENTITYENTITY.OBJ|C:\USERS\ADMIN\DOCUMENTS\VISUAL STUDIO 2017\PROJECTS\NYP_AGDT_FRAMEWORK TEMPLATE (IN USE) V1\BASE\RELEASE\ENTITYMANAGER.OBJ|C:\USERS\ADMIN\DOCUMENTS\VISUAL STUDIO 2017\PROJECTS\NYP_AGDT_FRAMEWORK TEMPLATE (IN USE) V1\BASE\RELEASE\EVENTBOX.OBJ|C:\USERS\ADMIN\DOCUMENTS\VISUAL STUDIO 2017\PROJECTS\NYP_AGDT_FRAMEWORK TEMPLATE (IN USE) V1\BASE\RELEASE\FPSCAMERA.OBJ|C:\USERS\ADMIN\DOCUMENTS\VISUAL STUDIO 2017\PROJECTS\NYP_AGDT_FRAMEWORK TEMPLATE (IN USE) V1\BASE\RELEASE\FURNITURE.OBJ|C:\USERS\ADMIN\DOCUMENTS\VISUAL STUDIO 2017\PROJECTS\NYP_AGDT_FRAMEWORK TEMPLATE (IN USE) V1\BASE\RELEASE\GAMEOVER.OBJ|C:\USERS\ADMIN\DOCUMENTS\VISUAL STUDIO 2017\PROJECTS\NYP_AGDT_FRAMEWORK TEMPLATE (IN USE) V1\BASE\RELEASE\GENERICENTITY.OBJ|C:\USERS\ADMIN\DOCUMENTS\VISUAL STUDIO 2017\PROJECTS\NYP_AGDT_FRAMEWORK TEMPLATE (IN USE) V1\BASE\RELEASE\GRENADE.OBJ|C:\USERS\ADMIN\DOCUMENTS\VISUAL STUDIO 2017\PROJECTS\NYP_AGDT_FRAMEWORK TEMPLATE (IN USE) V1\BASE\RELEASE\GRID.OBJ|C:\USERS\ADMIN\DOCUMENTS\VISUAL STUDIO 2017\PROJECTS\NYP_AGDT_FRAMEWORK TEMPLATE (IN USE) V1\BASE\RELEASE\GROUNDENTITY.OBJ|C:\USERS\ADMIN\DOCUMENTS\VISUAL STUDIO 2017\PROJECTS\NYP_AGDT_FRAMEWORK TEMPLATE (IN USE) V1\BASE\RELEASE\HIGHSCORE.OBJ|C:\USERS\ADMIN\DOCUMENTS\VISUAL STUDIO 2017\PROJECTS\NYP_AGDT_FRAMEWORK TEMPLATE (IN USE) V1\BASE\RELEASE\KEYBOARD.OBJ|C:\USERS\ADMIN\DOCUMENTS\VISUAL STUDIO 2017\PROJECTS\NYP_AGDT_FRAMEWORK TEMPLATE (IN USE) V1\BASE\RELEASE\LEVELOFDETAIL.OBJ|C:\USERS\ADMIN\DOCUMENTS\VISUAL STUDIO 2017\PROJECTS\NYP_AGDT_FRAMEWORK TEMPLATE (IN USE) V1\BASE\RELEASE\LIGHT.OBJ|C:\USERS\ADMIN\DOCUMENTS\VISUAL STUDIO 2017\PROJECTS\NYP_AGDT_FRAMEWORK TEMPLATE (IN USE) V1\BASE\RELEASE\LUAINTERFACE.OBJ|C:\USERS\ADMIN\DOCUMENTS\VISUAL STUDIO 2017\PROJECTS\NYP_AGDT_FRAMEWORK TEMPLATE (IN USE) V1\BASE\RELEASE\MAIN.OBJ|C:\USERS\ADMIN\DOCUMENTS\VISUAL STUDIO 2017\PROJECTS\NYP_AGDT_FRAMEWORK TEMPLATE (IN USE) V1\BASE\RELEASE\MAINMENU.OBJ|C:\USERS\ADMIN\DOCUMENTS\VISUAL STUDIO 2017\PROJECTS\NYP_AGDT_FRAMEWORK TEMPLATE (IN USE) V1\BASE\RELEASE\MINIGUN.OBJ|C:\USERS\ADMIN\DOCUMENTS\VISUAL STUDIO 2017\PROJECTS\NYP_AGDT_FRAMEWORK TEMPLATE (IN USE) V1\BASE\RELEASE\MINIMAP.OBJ|C:\USERS\ADMIN\DOCUMENTS\VISUAL STUDIO 2017\PROJECTS\NYP_AGDT_FRAMEWORK TEMPLATE (IN USE) V1\BASE\RELEASE\MOUSE.OBJ|C:\USERS\ADMIN\DOCUMENTS\VISUAL STUDIO 2017\PROJECTS\NYP_AGDT_FRAMEWORK TEMPLATE (IN USE) V1\BASE\RELEASE\NADE.OBJ|C:\USERS\ADMIN\DOCUMENTS\VISUAL STUDIO 2017\PROJECTS\NYP_AGDT_FRAMEWORK TEMPLATE (IN USE) V1\BASE\RELEASE\OBJMESH.OBJ|C:\USERS\ADMIN\DOCUMENTS\VISUAL STUDIO 2017\PROJECTS\NYP_AGDT_FRAMEWORK TEMPLATE (IN USE) V1\BASE\RELEASE\PARTICLE.OBJ|C:\USERS\ADMIN\DOCUMENTS\VISUAL STUDIO 2017\PROJECTS\NYP_AGDT_FRAMEWORK TEMPLATE (IN USE) V1\BASE\RELEASE\PAUSESTATE.OBJ|C:\USERS\ADMIN\DOCUMENTS\VISUAL STUDIO 2017\PROJECTS\NYP_AGDT_FRAMEWORK TEMPLATE (IN USE) V1\BASE\RELEASE\PISTOL.OBJ|C:\USERS\ADMIN\DOCUMENTS\VISUAL STUDIO 2017\PROJECTS\NYP_AGDT_FRAMEWORK TEMPLATE (IN USE) V1\BASE\RELEASE\PLAYERINFO.OBJ|C:\USERS\ADMIN\DOCUMENTS\VISUAL STUDIO 2017\PROJECTS\NYP_AGDT_FRAMEWORK TEMPLATE (IN USE) V1\BASE\RELEASE\PROJECTILE.OBJ|C:\USERS\ADMIN\DOCUMENTS\VISUAL STUDIO 2017\PROJECTS\NYP_AGDT_FRAMEWORK TEMPLATE (IN USE) V1\BASE\RELEASE\RIFLE.OBJ|C:\USERS\ADMIN\DOCUMENTS\VISUAL STUDIO 2017\PROJECTS\NYP_AGDT_FRAMEWORK TEMPLATE (IN USE) V1\BASE\RELEASE\SCENEGRAPH.OBJ|C:\USERS\ADMIN\DOCUMENTS\VISUAL STUDIO 2017\PROJECTS\NYP_AGDT_FRAMEWORK TEMPLATE (IN USE) V1\BASE\RELEASE\SCENENODE.OBJ|C:\USERS\ADMIN\DOCUMENTS\VISUAL STUDIO 2017\PROJECTS\NYP_AGDT_FRAMEWORK TEMPLATE (IN USE) V1\BASE\RELEASE\SCENETEXT.OBJ|C:\USERS\ADMIN\DOCUMENTS\VISUAL STUDIO 2017\PROJECTS\NYP_AGDT_FRAMEWORK TEMPLATE (IN USE) V1\BASE\RELEASE\SHOTGUN.OBJ|C:\USERS\ADMIN\DOCUMENTS\VISUAL STUDIO 2017\PROJECTS\NYP_AGDT_FRAMEWORK TEMPLATE (IN USE) V1\BASE\RELEASE\SKYBOXENTITY.OBJ|C:\USERS\ADMIN\DOCUMENTS\VISUAL STUDIO 2017\PROJECTS\NYP_AGDT_FRAMEWORK TEMPLATE (IN USE) V1\BASE\RELEASE\SOUNDENGINE.OBJ|C:\USERS\ADMIN\DOCUMENTS\VISUAL STUDIO 2017\PROJECTS\NYP_AGDT_FRAMEWORK TEMPLATE (IN USE) V1\BASE\RELEASE\SPATIALPARTITION.OBJ|C:\USERS\ADMIN\DOCUMENTS\VISUAL STUDIO 2017\PROJECTS\NYP_AGDT_FRAMEWORK TEMPLATE (IN USE) V1\BASE\RELEASE\SPRITEENTITY.OBJ|C:\USERS\ADMIN\DOCUMENTS\VISUAL STUDIO 2017\PROJECTS\NYP_AGDT_FRAMEWORK TEMPLATE (IN USE) V1\BASE\RELEASE\TEXTENTITY.OBJ|C:\USERS\ADMIN\DOCUMENTS\VISUAL STUDIO 2017\PROJECTS\NYP_AGDT_FRAMEWORK TEMPLATE (IN USE) V1\BASE\RELEASE\TRANSFORM.OBJ|C:\USERS\ADMIN\DOCUMENTS\VISUAL STUDIO 2017\PROJECTS\NYP_AGDT_FRAMEWORK TEMPLATE (IN USE) V1\BASE\RELEASE\UPDATETRANSFORMATION.OBJ|C:\USERS\ADMIN\DOCUMENTS\VISUAL STUDIO 2017\PROJECTS\NYP_AGDT_FRAMEWORK TEMPLATE (IN USE) V1\BASE\RELEASE\WEAPONINFO.OBJ
C:\PROGRAM FILES (X86)\MICROSOFT VISUAL STUDIO\2017\COMMUNITY\VC\TOOLS\MSVC\14.15.26726\LIB\X86\LEGACY_STDIO_DEFINITIONS.LIB
C:\USERS\ADMIN\DOCUMENTS\VISUAL STUDIO 2017\PROJECTS\NYP_AGDT_FRAMEWORK TEMPLATE (IN USE) V1\RELEASE\COMMON.LIB
C:\PROGRAM FILES (X86)\WINDOWS KITS\10\LIB\10.0.17134.0\UM\X86\WINMM.LIB
C:\PROGRAM FILES (X86)\WINDOWS KITS\10\LIB\10.0.17134.0\UM\X86\OPENGL32.LIB
C:\PROGRAM FILES (X86)\WINDOWS KITS\10\LIB\10.0.17134.0\UM\X86\GLU32.LIB
C:\USERS\ADMIN\DOCUMENTS\VISUAL STUDIO 2017\PROJECTS\NYP_AGDT_FRAMEWORK TEMPLATE (IN USE) V1\GLEW\LIB\GLEW32.LIB
C:\USERS\ADMIN\DOCUMENTS\VISUAL STUDIO 2017\PROJECTS\NYP_AGDT_FRAMEWORK TEMPLATE (IN USE) V1\GLFW\LIB-MSVC100\GLFW3.LIB
C:\USERS\ADMIN\DOCUMENTS\VISUAL STUDIO 2017\PROJECTS\NYP_AGDT_FRAMEWORK TEMPLATE (IN USE) V1\IRRKLANG\LIB\WIN32-VISUALSTUDIO\IRRKLANG.LIB
C:\USERS\ADMIN\DOCUMENTS\VISUAL STUDIO 2017\PROJECTS\NYP_AGDT_FRAMEWORK TEMPLATE (IN USE) V1\LUA\LUA5.1.LIB
C:\PROGRAM FILES (X86)\WINDOWS KITS\10\LIB\10.0.17134.0\UM\X86\KERNEL32.LIB
C:\PROGRAM FILES (X86)\WINDOWS KITS\10\LIB\10.0.17134.0\UM\X86\USER32.LIB
C:\PROGRAM FILES (X86)\WINDOWS KITS\10\LIB\10.0.17134.0\UM\X86\GDI32.LIB
C:\PROGRAM FILES (X86)\WINDOWS KITS\10\LIB\10.0.17134.0\UM\X86\WINSPOOL.LIB
C:\PROGRAM FILES (X86)\WINDOWS KITS\10\LIB\10.0.17134.0\UM\X86\COMDLG32.LIB
C:\PROGRAM FILES (X86)\WINDOWS KITS\10\LIB\10.0.17134.0\UM\X86\ADVAPI32.LIB
C:\PROGRAM FILES (X86)\WINDOWS KITS\10\LIB\10.0.17134.0\UM\X86\SHELL32.LIB
C:\PROGRAM FILES (X86)\WINDOWS KITS\10\LIB\10.0.17134.0\UM\X86\OLE32.LIB
C:\PROGRAM FILES (X86)\WINDOWS KITS\10\LIB\10.0.17134.0\UM\X86\OLEAUT32.LIB
C:\PROGRAM FILES (X86)\WINDOWS KITS\10\LIB\10.0.17134.0\UM\X86\UUID.LIB
C:\PROGRAM FILES (X86)\WINDOWS KITS\10\LIB\10.0.17134.0\UM\X86\ODBC32.LIB
C:\PROGRAM FILES (X86)\WINDOWS KITS\10\LIB\10.0.17134.0\UM\X86\ODBCCP32.LIB
C:\USERS\ADMIN\DOCUMENTS\VISUAL STUDIO 2017\PROJECTS\NYP_AGDT_FRAMEWORK TEMPLATE (IN USE) V1\BASE\RELEASE\APPLICATION.OBJ
C:\USERS\ADMIN\DOCUMENTS\VISUAL STUDIO 2017\PROJECTS\NYP_AGDT_FRAMEWORK TEMPLATE (IN USE) V1\BASE\RELEASE\CAMERAEFFECTS.OBJ
C:\USERS\ADMIN\DOCUMENTS\VISUAL STUDIO 2017\PROJECTS\NYP_AGDT_FRAMEWORK TEMPLATE (IN USE) V1\BASE\RELEASE\CINVENTORY.OBJ
C:\USERS\ADMIN\DOCUMENTS\VISUAL STUDIO 2017\PROJECTS\NYP_AGDT_FRAMEWORK TEMPLATE (IN USE) V1\BASE\RELEASE\EVENTBOX.OBJ
C:\USERS\ADMIN\DOCUMENTS\VISUAL STUDIO 2017\PROJECTS\NYP_AGDT_FRAMEWORK TEMPLATE (IN USE) V1\BASE\RELEASE\FURNITURE.OBJ
C:\USERS\ADMIN\DOCUMENTS\VISUAL STUDIO 2017\PROJECTS\NYP_AGDT_FRAMEWORK TEMPLATE (IN USE) V1\BASE\RELEASE\ENEMY3D.OBJ
C:\USERS\ADMIN\DOCUMENTS\VISUAL STUDIO 2017\PROJECTS\NYP_AGDT_FRAMEWORK TEMPLATE (IN USE) V1\BASE\RELEASE\ENTITYENTITY.OBJ
C:\USERS\ADMIN\DOCUMENTS\VISUAL STUDIO 2017\PROJECTS\NYP_AGDT_FRAMEWORK TEMPLATE (IN USE) V1\BASE\RELEASE\ENTITYMANAGER.OBJ
C:\USERS\ADMIN\DOCUMENTS\VISUAL STUDIO 2017\PROJECTS\NYP_AGDT_FRAMEWORK TEMPLATE (IN USE) V1\BASE\RELEASE\FPSCAMERA.OBJ
C:\USERS\ADMIN\DOCUMENTS\VISUAL STUDIO 2017\PROJECTS\NYP_AGDT_FRAMEWORK TEMPLATE (IN USE) V1\BASE\RELEASE\GAMEOVER.OBJ
C:\USERS\ADMIN\DOCUMENTS\VISUAL STUDIO 2017\PROJECTS\NYP_AGDT_FRAMEWORK TEMPLATE (IN USE) V1\BASE\RELEASE\HIGHSCORE.OBJ
C:\USERS\ADMIN\DOCUMENTS\VISUAL STUDIO 2017\PROJECTS\NYP_AGDT_FRAMEWORK TEMPLATE (IN USE) V1\BASE\RELEASE\MAINMENU.OBJ
C:\USERS\ADMIN\DOCUMENTS\VISUAL STUDIO 2017\PROJECTS\NYP_AGDT_FRAMEWORK TEMPLATE (IN USE) V1\BASE\RELEASE\PAUSESTATE.OBJ
C:\USERS\ADMIN\DOCUMENTS\VISUAL STUDIO 2017\PROJECTS\NYP_AGDT_FRAMEWORK TEMPLATE (IN USE) V1\BASE\RELEASE\GENERICENTITY.OBJ
C:\USERS\ADMIN\DOCUMENTS\VISUAL STUDIO 2017\PROJECTS\NYP_AGDT_FRAMEWORK TEMPLATE (IN USE) V1\BASE\RELEASE\GROUNDENTITY.OBJ
C:\USERS\ADMIN\DOCUMENTS\VISUAL STUDIO 2017\PROJECTS\NYP_AGDT_FRAMEWORK TEMPLATE (IN USE) V1\BASE\RELEASE\CONTROLLER.OBJ
C:\USERS\ADMIN\DOCUMENTS\VISUAL STUDIO 2017\PROJECTS\NYP_AGDT_FRAMEWORK TEMPLATE (IN USE) V1\BASE\RELEASE\KEYBOARD.OBJ
C:\USERS\ADMIN\DOCUMENTS\VISUAL STUDIO 2017\PROJECTS\NYP_AGDT_FRAMEWORK TEMPLATE (IN USE) V1\BASE\RELEASE\MOUSE.OBJ
C:\USERS\ADMIN\DOCUMENTS\VISUAL STUDIO 2017\PROJECTS\NYP_AGDT_FRAMEWORK TEMPLATE (IN USE) V1\BASE\RELEASE\LEVELOFDETAIL.OBJ
C:\USERS\ADMIN\DOCUMENTS\VISUAL STUDIO 2017\PROJECTS\NYP_AGDT_FRAMEWORK TEMPLATE (IN USE) V1\BASE\RELEASE\LIGHT.OBJ
C:\USERS\ADMIN\DOCUMENTS\VISUAL STUDIO 2017\PROJECTS\NYP_AGDT_FRAMEWORK TEMPLATE (IN USE) V1\BASE\RELEASE\LUAINTERFACE.OBJ
C:\USERS\ADMIN\DOCUMENTS\VISUAL STUDIO 2017\PROJECTS\NYP_AGDT_FRAMEWORK TEMPLATE (IN USE) V1\BASE\RELEASE\MAIN.OBJ
C:\USERS\ADMIN\DOCUMENTS\VISUAL STUDIO 2017\PROJECTS\NYP_AGDT_FRAMEWORK TEMPLATE (IN USE) V1\BASE\RELEASE\MINIMAP.OBJ
C:\USERS\ADMIN\DOCUMENTS\VISUAL STUDIO 2017\PROJECTS\NYP_AGDT_FRAMEWORK TEMPLATE (IN USE) V1\BASE\RELEASE\OBJMESH.OBJ
C:\USERS\ADMIN\DOCUMENTS\VISUAL STUDIO 2017\PROJECTS\NYP_AGDT_FRAMEWORK TEMPLATE (IN USE) V1\BASE\RELEASE\PARTICLE.OBJ
C:\USERS\ADMIN\DOCUMENTS\VISUAL STUDIO 2017\PROJECTS\NYP_AGDT_FRAMEWORK TEMPLATE (IN USE) V1\BASE\RELEASE\PLAYERINFO.OBJ
C:\USERS\ADMIN\DOCUMENTS\VISUAL STUDIO 2017\PROJECTS\NYP_AGDT_FRAMEWORK TEMPLATE (IN USE) V1\BASE\RELEASE\NADE.OBJ
C:\USERS\ADMIN\DOCUMENTS\VISUAL STUDIO 2017\PROJECTS\NYP_AGDT_FRAMEWORK TEMPLATE (IN USE) V1\BASE\RELEASE\PROJECTILE.OBJ
C:\USERS\ADMIN\DOCUMENTS\VISUAL STUDIO 2017\PROJECTS\NYP_AGDT_FRAMEWORK TEMPLATE (IN USE) V1\BASE\RELEASE\SCENEGRAPH.OBJ
C:\USERS\ADMIN\DOCUMENTS\VISUAL STUDIO 2017\PROJECTS\NYP_AGDT_FRAMEWORK TEMPLATE (IN USE) V1\BASE\RELEASE\SCENENODE.OBJ
C:\USERS\ADMIN\DOCUMENTS\VISUAL STUDIO 2017\PROJECTS\NYP_AGDT_FRAMEWORK TEMPLATE (IN USE) V1\BASE\RELEASE\TRANSFORM.OBJ
C:\USERS\ADMIN\DOCUMENTS\VISUAL STUDIO 2017\PROJECTS\NYP_AGDT_FRAMEWORK TEMPLATE (IN USE) V1\BASE\RELEASE\UPDATETRANSFORMATION.OBJ
C:\USERS\ADMIN\DOCUMENTS\VISUAL STUDIO 2017\PROJECTS\NYP_AGDT_FRAMEWORK TEMPLATE (IN USE) V1\BASE\RELEASE\SCENETEXT.OBJ
C:\USERS\ADMIN\DOCUMENTS\VISUAL STUDIO 2017\PROJECTS\NYP_AGDT_FRAMEWORK TEMPLATE (IN USE) V1\BASE\RELEASE\SKYBOXENTITY.OBJ
C:\USERS\ADMIN\DOCUMENTS\VISUAL STUDIO 2017\PROJECTS\NYP_AGDT_FRAMEWORK TEMPLATE (IN USE) V1\BASE\RELEASE\SOUNDENGINE.OBJ
C:\USERS\ADMIN\DOCUMENTS\VISUAL STUDIO 2017\PROJECTS\NYP_AGDT_FRAMEWORK TEMPLATE (IN USE) V1\BASE\RELEASE\GRID.OBJ
C:\USERS\ADMIN\DOCUMENTS\VISUAL STUDIO 2017\PROJECTS\NYP_AGDT_FRAMEWORK TEMPLATE (IN USE) V1\BASE\RELEASE\SPATIALPARTITION.OBJ
C:\USERS\ADMIN\DOCUMENTS\VISUAL STUDIO 2017\PROJECTS\NYP_AGDT_FRAMEWORK TEMPLATE (IN USE) V1\BASE\RELEASE\SPRITEENTITY.OBJ
C:\USERS\ADMIN\DOCUMENTS\VISUAL STUDIO 2017\PROJECTS\NYP_AGDT_FRAMEWORK TEMPLATE (IN USE) V1\BASE\RELEASE\TEXTENTITY.OBJ
C:\USERS\ADMIN\DOCUMENTS\VISUAL STUDIO 2017\PROJECTS\NYP_AGDT_FRAMEWORK TEMPLATE (IN USE) V1\BASE\RELEASE\BLANK.OBJ
C:\USERS\ADMIN\DOCUMENTS\VISUAL STUDIO 2017\PROJECTS\NYP_AGDT_FRAMEWORK TEMPLATE (IN USE) V1\BASE\RELEASE\GRENADE.OBJ
C:\USERS\ADMIN\DOCUMENTS\VISUAL STUDIO 2017\PROJECTS\NYP_AGDT_FRAMEWORK TEMPLATE (IN USE) V1\BASE\RELEASE\MINIGUN.OBJ
C:\USERS\ADMIN\DOCUMENTS\VISUAL STUDIO 2017\PROJECTS\NYP_AGDT_FRAMEWORK TEMPLATE (IN USE) V1\BASE\RELEASE\PISTOL.OBJ
C:\USERS\ADMIN\DOCUMENTS\VISUAL STUDIO 2017\PROJECTS\NYP_AGDT_FRAMEWORK TEMPLATE (IN USE) V1\BASE\RELEASE\RIFLE.OBJ
C:\USERS\ADMIN\DOCUMENTS\VISUAL STUDIO 2017\PROJECTS\NYP_AGDT_FRAMEWORK TEMPLATE (IN USE) V1\BASE\RELEASE\SHOTGUN.OBJ
C:\USERS\ADMIN\DOCUMENTS\VISUAL STUDIO 2017\PROJECTS\NYP_AGDT_FRAMEWORK TEMPLATE (IN USE) V1\BASE\RELEASE\WEAPONINFO.OBJ
C:\WINDOWS\GLOBALIZATION\SORTING\SORTDEFAULT.NLS
C:\PROGRAM FILES (X86)\MICROSOFT VISUAL STUDIO\2017\COMMUNITY\VC\TOOLS\MSVC\14.15.26726\BIN\HOSTX86\X86\C2.DLL
C:\PROGRAM FILES (X86)\MICROSOFT VISUAL STUDIO\2017\COMMUNITY\VC\TOOLS\MSVC\14.15.26726\LIB\X86\MSVCPRT.LIB
C:\PROGRAM FILES (X86)\MICROSOFT VISUAL STUDIO\2017\COMMUNITY\VC\TOOLS\MSVC\14.15.26726\LIB\X86\MSVCRT.LIB
C:\PROGRAM FILES (X86)\MICROSOFT VISUAL STUDIO\2017\COMMUNITY\VC\TOOLS\MSVC\14.15.26726\LIB\X86\OLDNAMES.LIB
C:\PROGRAM FILES (X86)\MICROSOFT VISUAL STUDIO\2017\COMMUNITY\VC\TOOLS\MSVC\14.15.26726\LIB\X86\VCRUNTIME.LIB
C:\PROGRAM FILES (X86)\WINDOWS KITS\10\LIB\10.0.17134.0\UCRT\X86\UCRT.LIB
C:\PROGRAM FILES (X86)\MICROSOFT VISUAL STUDIO\2017\COMMUNITY\VC\TOOLS\MSVC\14.15.26726\LIB\X86\LEGACY_STDIO_WIDE_SPECIFIERS.LIB
C:\PROGRAM FILES (X86)\MICROSOFT VISUAL STUDIO\2017\COMMUNITY\VC\TOOLS\MSVC\14.15.26726\BIN\HOSTX86\X86\1033\LINKUI.DLL
C:\PROGRAM FILES (X86)\WINDOWS KITS\10\BIN\10.0.17134.0\X86\RC.EXE
C:\PROGRAM FILES (X86)\MICROSOFT VISUAL STUDIO\2017\COMMUNITY\VC\TOOLS\MSVC\14.15.26726\BIN\HOSTX86\X86\CVTRES.EXE
C:\WINDOWS\SYSTEM32\TZRES.DLL
C:\PROGRAM FILES (X86)\MICROSOFT VISUAL STUDIO\2017\COMMUNITY\VC\TOOLS\MSVC\14.15.26726\BIN\HOSTX86\X86\1033\CLUI.DLL
